<?xml version="1.0" encoding="UTF-8" standalone="no"?>
<!-- Created with Inkscape (http://www.inkscape.org/) -->

<svg
   xmlns:dc="http://purl.org/dc/elements/1.1/"
   xmlns:cc="http://creativecommons.org/ns#"
   xmlns:rdf="http://www.w3.org/1999/02/22-rdf-syntax-ns#"
   xmlns:svg="http://www.w3.org/2000/svg"
   xmlns="http://www.w3.org/2000/svg"
   xmlns:sodipodi="http://sodipodi.sourceforge.net/DTD/sodipodi-0.dtd"
   xmlns:inkscape="http://www.inkscape.org/namespaces/inkscape"
   width="1000"
   height="1000"
   viewBox="0 0 264.58333 264.58334"
   version="1.1"
   id="svg8"
   inkscape:version="0.92.4 5da689c313, 2019-01-14"
   sodipodi:docname="o.svg">
  <defs
     id="defs2">
    <inkscape:path-effect
       effect="simplify"
       id="path-effect9320"
       is_visible="true"
       steps="1"
       threshold="0.000625"
       smooth_angles="360"
       helper_size="0"
       simplify_individual_paths="false"
       simplify_just_coalesce="false"
       simplifyindividualpaths="false"
       simplifyJustCoalesce="false" />
    <inkscape:path-effect
       effect="simplify"
       id="path-effect2163"
       is_visible="true"
       steps="1"
       threshold="0.000625"
       smooth_angles="360"
       helper_size="0"
       simplify_individual_paths="false"
       simplify_just_coalesce="false"
       simplifyindividualpaths="false"
       simplifyJustCoalesce="false" />
  </defs>
  <sodipodi:namedview
     id="base"
     pagecolor="#ffffff"
     bordercolor="#666666"
     borderopacity="1.0"
     inkscape:pageopacity="0.0"
     inkscape:pageshadow="2"
     inkscape:zoom="0.9899495"
     inkscape:cx="-65.005595"
     inkscape:cy="696.48819"
     inkscape:document-units="px"
     inkscape:current-layer="layer1"
     showgrid="false"
     inkscape:window-width="1920"
     inkscape:window-height="1024"
     inkscape:window-x="0"
     inkscape:window-y="0"
     inkscape:window-maximized="1"
     units="px"
     inkscape:lockguides="false"
     showguides="true"
     inkscape:guide-bbox="true">
    <sodipodi:guide
       position="0,79.375"
       orientation="0,1"
       id="guide836"
       inkscape:locked="false"
       inkscape:label="base"
       inkscape:color="rgb(255,0,242)" />
    <sodipodi:guide
       position="0,185.20833"
       orientation="0,1"
       id="guide838"
       inkscape:locked="false"
       inkscape:label="dline"
       inkscape:color="rgb(0,0,255)" />
    <sodipodi:guide
       position="0,218.28125"
       orientation="0,1"
       id="guide840"
       inkscape:locked="false"
       inkscape:label="pline"
       inkscape:color="rgb(0,0,255)" />
  </sodipodi:namedview>
  <metadata
     id="metadata5">
    <rdf:RDF>
      <cc:Work
         rdf:about="">
        <dc:format>image/svg+xml</dc:format>
        <dc:type
           rdf:resource="http://purl.org/dc/dcmitype/StillImage" />
        <dc:title />
      </cc:Work>
    </rdf:RDF>
  </metadata>
  <g
     inkscape:label="Layer 1"
     inkscape:groupmode="layer"
     id="layer1"
     transform="translate(0,-32.41665)">
    <path
       style="fill:none;stroke:#000000;stroke-width:10.58333302;stroke-linecap:round;stroke-linejoin:miter;stroke-miterlimit:4;stroke-dasharray:none;stroke-opacity:1"
       inkscape:path-effect="#path-effect9320"
       inkscape:original-d="m 149.46573,37.764754 c 1.22571,26.71421 -2.45217,50.687774 -2.28142,76.419806 -0.0911,22.03564 -1.65016,39.18842 -1.78922,57.25726 0.33555,14.14633 2.37806,29.79855 -1.95011,40.21784 C 125.08371,196.01045 112.25,174.1488 97.109584,153.37911 94.432404,149.41095 87.654496,141.22626 84.724438,137.44007"
       id="path9318"
       d="m 149.46573,37.764754 c 0.75445,15.904494 -0.33566,31.811835 -1.29399,47.682362 -0.59328,9.825102 -0.95268,19.664074 -0.99123,29.510134 -0.0526,13.43459 -0.8332,26.85008 -1.35313,40.27109 -0.2157,5.56786 -0.55949,11.14074 -0.4198,16.71142 0.22243,8.87015 1.15266,17.74249 0.61942,26.61576 -0.26745,4.45049 0.83268,16.01545 -2.58202,13.10414 -10.34935,-8.82366 -18.87277,-19.53391 -26.78921,-30.52895 -6.67892,-9.27627 -13.16421,-18.68814 -19.741081,-28.03745 -2.503348,-3.55862 -5.249842,-6.93735 -7.96402,-10.33517 -1.413174,-1.76912 -2.836712,-3.53017 -4.226231,-5.31802"
       inkscape:connector-curvature="0"
       sodipodi:nodetypes="cccccc"
       transform="translate(0,3.556e-5)" />
  </g>
</svg>
