<?xml version="1.0" encoding="UTF-8" standalone="no"?>
<!-- Created with Inkscape (http://www.inkscape.org/) -->

<svg
   xmlns:dc="http://purl.org/dc/elements/1.1/"
   xmlns:cc="http://creativecommons.org/ns#"
   xmlns:rdf="http://www.w3.org/1999/02/22-rdf-syntax-ns#"
   xmlns:svg="http://www.w3.org/2000/svg"
   xmlns="http://www.w3.org/2000/svg"
   xmlns:sodipodi="http://sodipodi.sourceforge.net/DTD/sodipodi-0.dtd"
   xmlns:inkscape="http://www.inkscape.org/namespaces/inkscape"
   width="1000"
   height="1000"
   viewBox="0 0 264.58333 264.58334"
   version="1.1"
   id="svg8"
   inkscape:version="0.92.4 5da689c313, 2019-01-14"
   sodipodi:docname="rin.svg">
  <defs
     id="defs2">
    <inkscape:path-effect
       effect="simplify"
       id="path-effect25113"
       is_visible="true"
       steps="1"
       threshold="0.000625"
       smooth_angles="360"
       helper_size="0"
       simplify_individual_paths="false"
       simplify_just_coalesce="false"
       simplifyindividualpaths="false"
       simplifyJustCoalesce="false" />
    <inkscape:path-effect
       effect="simplify"
       id="path-effect22920"
       is_visible="true"
       steps="1"
       threshold="0.000625"
       smooth_angles="360"
       helper_size="0"
       simplify_individual_paths="false"
       simplify_just_coalesce="false"
       simplifyindividualpaths="false"
       simplifyJustCoalesce="false" />
    <inkscape:path-effect
       effect="simplify"
       id="path-effect9320"
       is_visible="true"
       steps="1"
       threshold="0.000625"
       smooth_angles="360"
       helper_size="0"
       simplify_individual_paths="false"
       simplify_just_coalesce="false"
       simplifyindividualpaths="false"
       simplifyJustCoalesce="false" />
    <inkscape:path-effect
       effect="simplify"
       id="path-effect2163"
       is_visible="true"
       steps="1"
       threshold="0.000625"
       smooth_angles="360"
       helper_size="0"
       simplify_individual_paths="false"
       simplify_just_coalesce="false"
       simplifyindividualpaths="false"
       simplifyJustCoalesce="false" />
  </defs>
  <sodipodi:namedview
     id="base"
     pagecolor="#ffffff"
     bordercolor="#666666"
     borderopacity="1.0"
     inkscape:pageopacity="0.0"
     inkscape:pageshadow="2"
     inkscape:zoom="1.4"
     inkscape:cx="454.12395"
     inkscape:cy="750.44265"
     inkscape:document-units="px"
     inkscape:current-layer="layer1"
     showgrid="false"
     inkscape:window-width="1920"
     inkscape:window-height="1024"
     inkscape:window-x="0"
     inkscape:window-y="0"
     inkscape:window-maximized="1"
     units="px"
     inkscape:lockguides="false"
     showguides="true"
     inkscape:guide-bbox="true">
    <sodipodi:guide
       position="0,79.375"
       orientation="0,1"
       id="guide836"
       inkscape:locked="false"
       inkscape:label="base"
       inkscape:color="rgb(255,0,242)" />
    <sodipodi:guide
       position="0,185.20833"
       orientation="0,1"
       id="guide838"
       inkscape:locked="false"
       inkscape:label="dline"
       inkscape:color="rgb(0,0,255)" />
    <sodipodi:guide
       position="0,218.28125"
       orientation="0,1"
       id="guide840"
       inkscape:locked="false"
       inkscape:label="pline"
       inkscape:color="rgb(0,0,255)" />
  </sodipodi:namedview>
  <metadata
     id="metadata5">
    <rdf:RDF>
      <cc:Work
         rdf:about="">
        <dc:format>image/svg+xml</dc:format>
        <dc:type
           rdf:resource="http://purl.org/dc/dcmitype/StillImage" />
        <dc:title></dc:title>
      </cc:Work>
    </rdf:RDF>
  </metadata>
  <g
     inkscape:label="Layer 1"
     inkscape:groupmode="layer"
     id="layer1"
     transform="translate(0,-32.41665)">
    <path
       style="fill:none;stroke:#000000;stroke-width:12.58608341;stroke-linecap:round;stroke-linejoin:miter;stroke-miterlimit:4;stroke-dasharray:none;stroke-opacity:1"
       inkscape:path-effect="#path-effect25113"
       inkscape:original-d="m 208.45387,38.966926 c -9.22665,17.222856 -14.90273,34.674998 -25.15925,51.202263 -9.54686,17.156921 -20.35142,34.549201 -32.90143,48.272341 -3.28875,3.08249 -12.9044,9.21193 -13.77312,-2.67131 -1.01937,-23.97857 4.28352,-37.732252 3.28667,-56.606946 0.84713,-14.067893 3.46289,-27.477719 4.16383,-40.00736"
       id="path25111"
       d="m 208.45387,38.966926 c -8.05217,14.976081 -13.85979,31.033923 -22.05734,45.943423 -1.09177,1.985683 -2.33278,3.885386 -3.43806,5.862104 -7.38867,13.214107 -15.23459,26.237307 -24.5748,38.177417 -2.57023,3.28567 -4.96961,6.7716 -8.06871,9.56445 -1.7371,1.56544 -3.70809,2.92618 -5.91262,3.7308 -1.4648,0.53463 -3.16451,0.82594 -4.63441,0.1486 -1.44063,-0.66385 -2.24098,-2.17398 -2.65714,-3.63782 -0.65539,-2.30535 -0.56698,-4.72787 -0.60733,-7.09844 -0.13798,-8.10597 0.55035,-16.19865 1.52561,-24.23933 1.01453,-8.364453 1.94425,-16.752911 1.98676,-25.201663 0.007,-1.403111 -0.12794,-2.800962 -0.0357,-4.205719 0.72376,-11.023221 2.59737,-21.926498 3.63569,-32.917945 0.18667,-1.976053 0.34385,-3.95507 0.45476,-5.936889"
       inkscape:connector-curvature="0"
       sodipodi:nodetypes="cccccc"
       transform="matrix(0.84087581,0,0,0.84087581,34.017797,5.1476946)" />
  </g>
</svg>
