<?xml version="1.0" encoding="UTF-8" standalone="no"?>
<!-- Created with Inkscape (http://www.inkscape.org/) -->

<svg
   xmlns:dc="http://purl.org/dc/elements/1.1/"
   xmlns:cc="http://creativecommons.org/ns#"
   xmlns:rdf="http://www.w3.org/1999/02/22-rdf-syntax-ns#"
   xmlns:svg="http://www.w3.org/2000/svg"
   xmlns="http://www.w3.org/2000/svg"
   xmlns:sodipodi="http://sodipodi.sourceforge.net/DTD/sodipodi-0.dtd"
   xmlns:inkscape="http://www.inkscape.org/namespaces/inkscape"
   width="1000"
   height="1000"
   viewBox="0 0 264.58333 264.58334"
   version="1.1"
   id="svg8"
   inkscape:version="0.92.4 5da689c313, 2019-01-14"
   sodipodi:docname="x7.svg">
  <defs
     id="defs2">
    <inkscape:path-effect
       effect="simplify"
       id="path-effect26676"
       is_visible="true"
       steps="1"
       threshold="0.000625"
       smooth_angles="360"
       helper_size="0"
       simplify_individual_paths="false"
       simplify_just_coalesce="false"
       simplifyindividualpaths="false"
       simplifyJustCoalesce="false" />
    <inkscape:path-effect
       effect="simplify"
       id="path-effect25258"
       is_visible="true"
       steps="1"
       threshold="0.000625"
       smooth_angles="360"
       helper_size="0"
       simplify_individual_paths="false"
       simplify_just_coalesce="false"
       simplifyindividualpaths="false"
       simplifyJustCoalesce="false" />
    <inkscape:path-effect
       effect="simplify"
       id="path-effect25227"
       is_visible="true"
       steps="1"
       threshold="0.000625"
       smooth_angles="360"
       helper_size="0"
       simplify_individual_paths="false"
       simplify_just_coalesce="false"
       simplifyindividualpaths="false"
       simplifyJustCoalesce="false" />
    <inkscape:path-effect
       effect="simplify"
       id="path-effect25198"
       is_visible="true"
       steps="1"
       threshold="0.000625"
       smooth_angles="360"
       helper_size="0"
       simplify_individual_paths="false"
       simplify_just_coalesce="false"
       simplifyindividualpaths="false"
       simplifyJustCoalesce="false" />
    <inkscape:path-effect
       effect="simplify"
       id="path-effect25163"
       is_visible="true"
       steps="1"
       threshold="0.000625"
       smooth_angles="360"
       helper_size="0"
       simplify_individual_paths="false"
       simplify_just_coalesce="false"
       simplifyindividualpaths="false"
       simplifyJustCoalesce="false" />
    <inkscape:path-effect
       effect="simplify"
       id="path-effect25113"
       is_visible="true"
       steps="1"
       threshold="0.000625"
       smooth_angles="360"
       helper_size="0"
       simplify_individual_paths="false"
       simplify_just_coalesce="false"
       simplifyindividualpaths="false"
       simplifyJustCoalesce="false" />
    <inkscape:path-effect
       effect="simplify"
       id="path-effect22920"
       is_visible="true"
       steps="1"
       threshold="0.000625"
       smooth_angles="360"
       helper_size="0"
       simplify_individual_paths="false"
       simplify_just_coalesce="false"
       simplifyindividualpaths="false"
       simplifyJustCoalesce="false" />
    <inkscape:path-effect
       effect="simplify"
       id="path-effect9320"
       is_visible="true"
       steps="1"
       threshold="0.000625"
       smooth_angles="360"
       helper_size="0"
       simplify_individual_paths="false"
       simplify_just_coalesce="false"
       simplifyindividualpaths="false"
       simplifyJustCoalesce="false" />
    <inkscape:path-effect
       effect="simplify"
       id="path-effect2163"
       is_visible="true"
       steps="1"
       threshold="0.000625"
       smooth_angles="360"
       helper_size="0"
       simplify_individual_paths="false"
       simplify_just_coalesce="false"
       simplifyindividualpaths="false"
       simplifyJustCoalesce="false" />
  </defs>
  <sodipodi:namedview
     id="base"
     pagecolor="#ffffff"
     bordercolor="#666666"
     borderopacity="1.0"
     inkscape:pageopacity="0.0"
     inkscape:pageshadow="2"
     inkscape:zoom="0.7"
     inkscape:cx="440.78905"
     inkscape:cy="316.08793"
     inkscape:document-units="px"
     inkscape:current-layer="layer1"
     showgrid="false"
     inkscape:window-width="1920"
     inkscape:window-height="1024"
     inkscape:window-x="0"
     inkscape:window-y="0"
     inkscape:window-maximized="1"
     units="px"
     inkscape:lockguides="false"
     showguides="true"
     inkscape:guide-bbox="true">
    <sodipodi:guide
       position="0,79.375"
       orientation="0,1"
       id="guide836"
       inkscape:locked="false"
       inkscape:label="base"
       inkscape:color="rgb(255,0,242)" />
    <sodipodi:guide
       position="0,185.20833"
       orientation="0,1"
       id="guide838"
       inkscape:locked="false"
       inkscape:label="dline"
       inkscape:color="rgb(0,0,255)" />
    <sodipodi:guide
       position="0,218.28125"
       orientation="0,1"
       id="guide840"
       inkscape:locked="false"
       inkscape:label="pline"
       inkscape:color="rgb(0,0,255)" />
  </sodipodi:namedview>
  <metadata
     id="metadata5">
    <rdf:RDF>
      <cc:Work
         rdf:about="">
        <dc:format>image/svg+xml</dc:format>
        <dc:type
           rdf:resource="http://purl.org/dc/dcmitype/StillImage" />
        <dc:title></dc:title>
      </cc:Work>
    </rdf:RDF>
  </metadata>
  <g
     inkscape:label="Layer 1"
     inkscape:groupmode="layer"
     id="layer1"
     transform="translate(0,-32.41665)">
    <path
       style="fill:none;stroke:#000000;stroke-width:10.58333302;stroke-linecap:round;stroke-linejoin:miter;stroke-miterlimit:4;stroke-dasharray:none;stroke-opacity:1"
       inkscape:path-effect="#path-effect25258"
       inkscape:original-d="m 130.40178,38.464271 c -3.89828,14.607424 -3.45127,29.919 -6.40602,44.691655 -1.27633,11.699246 -1.98452,23.526464 -5.30415,34.882954 -3.19198,15.90417 -4.3077,32.15875 -5.87872,48.28689 -2.02852,18.13703 -1.7591,33.44848 -2.82182,49.18254"
       id="path25256"
       d="m 130.40178,38.464271 c -2.70888,10.147051 -3.34109,20.672046 -4.43347,31.073595 -0.48397,4.608323 -1.48662,9.147991 -1.98748,13.755166 -1.16676,10.73258 -1.96433,21.556698 -4.55748,32.075838 -0.34222,1.38822 -0.75386,2.75437 -1.02498,4.16204 -3.00201,15.58678 -3.86672,31.46904 -5.6326,47.21943 -1.29461,11.54703 -1.65044,23.16834 -2.08546,34.77157 -0.17488,4.66458 -0.37442,9.32888 -0.68924,13.9864"
       inkscape:connector-curvature="0"
       transform="translate(-15.875,-0.52916663)"
       sodipodi:nodetypes="ccccc" />
    <path
       style="fill:none;stroke:#000000;stroke-width:10.58333302;stroke-linecap:round;stroke-linejoin:miter;stroke-miterlimit:4;stroke-dasharray:none;stroke-opacity:1"
       inkscape:path-effect="#path-effect26676"
       inkscape:original-d="m 102.09696,132.89649 c 13.07,-10.62912 25.22359,-15.28281 41.38892,-16.85507 0,0 24.66962,-1.67501 30.81315,13.28304 5.00299,12.33959 -8.02635,77.91366 -9.66077,90.41719"
       id="path26674"
       d="m 102.09696,132.89649 c 6.00014,-4.89723 12.63159,-9.08335 19.84772,-11.94906 6.94184,-2.75678 14.30948,-4.62147 21.75548,-4.91804 3.98745,-0.15882 7.99833,0.11061 11.91881,0.85232 4.49888,0.85114 8.98071,2.32328 12.72484,5.02552 2.77422,2.00223 5.19353,4.73517 6.17664,8.03423 0.74718,2.50735 0.88028,5.15 0.90664,7.74851 0.067,6.60982 -0.52194,13.20705 -1.25898,19.7685 -1.7631,15.69586 -4.41511,31.27282 -7.00646,46.84855 -0.8555,5.14213 -1.79742,10.27196 -2.52339,15.43463"
       inkscape:connector-curvature="0"
       sodipodi:nodetypes="cccc" />
  </g>
</svg>
