<?xml version="1.0" encoding="UTF-8" standalone="no"?>
<!-- Created with Inkscape (http://www.inkscape.org/) -->

<svg
   xmlns:dc="http://purl.org/dc/elements/1.1/"
   xmlns:cc="http://creativecommons.org/ns#"
   xmlns:rdf="http://www.w3.org/1999/02/22-rdf-syntax-ns#"
   xmlns:svg="http://www.w3.org/2000/svg"
   xmlns="http://www.w3.org/2000/svg"
   xmlns:sodipodi="http://sodipodi.sourceforge.net/DTD/sodipodi-0.dtd"
   xmlns:inkscape="http://www.inkscape.org/namespaces/inkscape"
   width="1000"
   height="1000"
   viewBox="0 0 264.58333 264.58334"
   version="1.1"
   id="svg8"
   inkscape:version="0.92.4 5da689c313, 2019-01-14"
   sodipodi:docname="x8.svg">
  <defs
     id="defs2">
    <inkscape:path-effect
       effect="simplify"
       id="path-effect26706"
       is_visible="true"
       steps="1"
       threshold="0.000625"
       smooth_angles="360"
       helper_size="0"
       simplify_individual_paths="false"
       simplify_just_coalesce="false"
       simplifyindividualpaths="false"
       simplifyJustCoalesce="false" />
    <inkscape:path-effect
       effect="simplify"
       id="path-effect26676"
       is_visible="true"
       steps="1"
       threshold="0.000625"
       smooth_angles="360"
       helper_size="0"
       simplify_individual_paths="false"
       simplify_just_coalesce="false"
       simplifyindividualpaths="false"
       simplifyJustCoalesce="false" />
    <inkscape:path-effect
       effect="simplify"
       id="path-effect25258"
       is_visible="true"
       steps="1"
       threshold="0.000625"
       smooth_angles="360"
       helper_size="0"
       simplify_individual_paths="false"
       simplify_just_coalesce="false"
       simplifyindividualpaths="false"
       simplifyJustCoalesce="false" />
    <inkscape:path-effect
       effect="simplify"
       id="path-effect25227"
       is_visible="true"
       steps="1"
       threshold="0.000625"
       smooth_angles="360"
       helper_size="0"
       simplify_individual_paths="false"
       simplify_just_coalesce="false"
       simplifyindividualpaths="false"
       simplifyJustCoalesce="false" />
    <inkscape:path-effect
       effect="simplify"
       id="path-effect25198"
       is_visible="true"
       steps="1"
       threshold="0.000625"
       smooth_angles="360"
       helper_size="0"
       simplify_individual_paths="false"
       simplify_just_coalesce="false"
       simplifyindividualpaths="false"
       simplifyJustCoalesce="false" />
    <inkscape:path-effect
       effect="simplify"
       id="path-effect25163"
       is_visible="true"
       steps="1"
       threshold="0.000625"
       smooth_angles="360"
       helper_size="0"
       simplify_individual_paths="false"
       simplify_just_coalesce="false"
       simplifyindividualpaths="false"
       simplifyJustCoalesce="false" />
    <inkscape:path-effect
       effect="simplify"
       id="path-effect25113"
       is_visible="true"
       steps="1"
       threshold="0.000625"
       smooth_angles="360"
       helper_size="0"
       simplify_individual_paths="false"
       simplify_just_coalesce="false"
       simplifyindividualpaths="false"
       simplifyJustCoalesce="false" />
    <inkscape:path-effect
       effect="simplify"
       id="path-effect22920"
       is_visible="true"
       steps="1"
       threshold="0.000625"
       smooth_angles="360"
       helper_size="0"
       simplify_individual_paths="false"
       simplify_just_coalesce="false"
       simplifyindividualpaths="false"
       simplifyJustCoalesce="false" />
    <inkscape:path-effect
       effect="simplify"
       id="path-effect9320"
       is_visible="true"
       steps="1"
       threshold="0.000625"
       smooth_angles="360"
       helper_size="0"
       simplify_individual_paths="false"
       simplify_just_coalesce="false"
       simplifyindividualpaths="false"
       simplifyJustCoalesce="false" />
    <inkscape:path-effect
       effect="simplify"
       id="path-effect2163"
       is_visible="true"
       steps="1"
       threshold="0.000625"
       smooth_angles="360"
       helper_size="0"
       simplify_individual_paths="false"
       simplify_just_coalesce="false"
       simplifyindividualpaths="false"
       simplifyJustCoalesce="false" />
  </defs>
  <sodipodi:namedview
     id="base"
     pagecolor="#ffffff"
     bordercolor="#666666"
     borderopacity="1.0"
     inkscape:pageopacity="0.0"
     inkscape:pageshadow="2"
     inkscape:zoom="0.9899495"
     inkscape:cx="274.09449"
     inkscape:cy="532.53354"
     inkscape:document-units="px"
     inkscape:current-layer="layer1"
     showgrid="false"
     inkscape:window-width="1920"
     inkscape:window-height="1024"
     inkscape:window-x="0"
     inkscape:window-y="0"
     inkscape:window-maximized="1"
     units="px"
     inkscape:lockguides="false"
     showguides="true"
     inkscape:guide-bbox="true">
    <sodipodi:guide
       position="0,79.375"
       orientation="0,1"
       id="guide836"
       inkscape:locked="false"
       inkscape:label="base"
       inkscape:color="rgb(255,0,242)" />
    <sodipodi:guide
       position="0,185.20833"
       orientation="0,1"
       id="guide838"
       inkscape:locked="false"
       inkscape:label="dline"
       inkscape:color="rgb(0,0,255)" />
    <sodipodi:guide
       position="0,218.28125"
       orientation="0,1"
       id="guide840"
       inkscape:locked="false"
       inkscape:label="pline"
       inkscape:color="rgb(0,0,255)" />
  </sodipodi:namedview>
  <metadata
     id="metadata5">
    <rdf:RDF>
      <cc:Work
         rdf:about="">
        <dc:format>image/svg+xml</dc:format>
        <dc:type
           rdf:resource="http://purl.org/dc/dcmitype/StillImage" />
        <dc:title></dc:title>
      </cc:Work>
    </rdf:RDF>
  </metadata>
  <g
     inkscape:label="Layer 1"
     inkscape:groupmode="layer"
     id="layer1"
     transform="translate(0,-32.41665)">
    <path
       style="fill:none;stroke:#000000;stroke-width:11.04352093;stroke-linecap:round;stroke-linejoin:miter;stroke-miterlimit:4;stroke-dasharray:none;stroke-opacity:1"
       inkscape:path-effect="#path-effect26706"
       inkscape:original-d="M 142.11904,55.473199 C 96.223542,66.3083 82.847674,127.34448 96.011603,166.74061 c 18.730847,38.43354 63.245207,23.44035 85.550877,-7.94754 19.91757,-29.61661 25.06478,-80.074335 -7.61792,-103.337202 -11.31275,-3.903439 -21.54898,-2.057758 -31.82552,0.01733"
       id="path26704"
       d="m 142.11904,55.473199 c -9.66111,2.239363 -18.64531,7.14205 -25.88621,13.910777 -9.01287,8.425146 -15.33791,19.409456 -19.314794,31.012544 -4.764055,13.89977 -6.525888,28.79415 -5.397202,43.4278 0.599813,7.7767 1.087996,15.88992 4.490769,22.91629 3.367247,6.95301 8.296037,13.30713 14.844367,17.53718 5.94428,3.83985 13.10647,5.56261 20.15035,5.34195 9.23362,-0.28926 18.1782,-3.51058 26.07382,-8.1756 9.6461,-5.69927 18.26308,-13.34625 24.48234,-22.65107 6.97674,-10.43811 11.68608,-22.33815 14.11062,-34.63545 2.40213,-12.18364 2.59245,-24.939587 -0.49826,-37.022724 -2.45643,-9.60342 -7.25651,-18.674625 -14.25196,-25.751746 -2.14826,-2.173341 -4.09414,-4.918092 -6.97832,-5.927282 -5.4501,-1.907018 -11.28911,-2.524749 -17.03987,-2.195679 -4.98472,0.285236 -9.90095,1.226049 -14.78565,2.213009 0,0 0,1e-6 0,1e-6 z"
       inkscape:connector-curvature="0"
       transform="matrix(0.91839574,0,0.12862734,1,-8.0672353,0)"
       sodipodi:nodetypes="ccccc" />
  </g>
</svg>
